Data Visualization #1 - House Prices
…
About Dataset

Downloaded from Kaggle : https://www.kaggle.com/c/house-prices-advanced-regression-techniques

The Ames Housing dataset was compiled by Dean De Cock for use in data science education. Its an incredible alternative for data scientists looking for a modernized and expanded version of the often cited Boston Housing dataset.

Ask a home buyer to describe their dream house, and they probably wont begin with the height of the basement ceiling or the proximity to an east-west railroad. But this playground competitions dataset proves that much more influences price negotiations than the number of bedrooms or a white-picket fence.

With 79 explanatory variables describing (almost) every aspect of residential homes in Ames, Iowa, this competition challenges you to predict the final price of each home.

df = read_csv('train.csv')
df = tbl_df(df)
df

## # A tibble: 1,460 x 81
##       Id MSSubClass MSZoning LotFrontage LotArea Street Alley LotShape
##    <dbl>      <dbl> <chr>          <dbl>   <dbl> <chr>  <chr> <chr>   
##  1     1         60 RL                65    8450 Pave   <NA>  Reg     
##  2     2         20 RL                80    9600 Pave   <NA>  Reg     
##  3     3         60 RL                68   11250 Pave   <NA>  IR1     
##  4     4         70 RL                60    9550 Pave   <NA>  IR1     
##  5     5         60 RL                84   14260 Pave   <NA>  IR1     
##  6     6         50 RL                85   14115 Pave   <NA>  IR1     
##  7     7         20 RL                75   10084 Pave   <NA>  Reg     
##  8     8         60 RL                NA   10382 Pave   <NA>  IR1     
##  9     9         50 RM                51    6120 Pave   <NA>  Reg     
## 10    10        190 RL                50    7420 Pave   <NA>  Reg     
## # ... with 1,450 more rows, and 73 more variables: LandContour <chr>,
## #   Utilities <chr>, LotConfig <chr>, LandSlope <chr>, Neighborhood <chr>,
## #   Condition1 <chr>, Condition2 <chr>, BldgType <chr>, HouseStyle <chr>,
## #   OverallQual <dbl>, OverallCond <dbl>, YearBuilt <dbl>, YearRemodAdd <dbl>,
## #   RoofStyle <chr>, RoofMatl <chr>, Exterior1st <chr>, Exterior2nd <chr>,
## #   MasVnrType <chr>, MasVnrArea <dbl>, ExterQual <chr>, ExterCond <chr>,
## #   Foundation <chr>, BsmtQual <chr>, BsmtCond <chr>, BsmtExposure <chr>, ...
…
